[
  {
    "id": "1",
    "backgroundImage": "/assets/images/hero-slider/five/1.jpg",
    "subtitle": "Giảm giá 50% tất cả sản phẩm",
    "title": "Dual Camera 20MP",
    "url": "/shop/grid-left-sidebar"
  },
  {
    "id": "2",
    "backgroundImage": "/assets/images/hero-slider/five/2.jpg",
    "subtitle": "Giảm giá lên tới 40%",
    "title": "Smart Watches",
    "url": "/shop/grid-left-sidebar"
  },
  {
    "id": "3",
    "backgroundImage": "/assets/images/hero-slider/five/3.jpg",
    "subtitle": "Taking your Viewing Experience to Next Level",
    "title": "Beat Headphone",
    "url": "/shop/grid-left-sidebar"
  }
]
